<?xml version="1.0" encoding="UTF-8" standalone="no"?>
<!-- Uploaded to: SVG Repo, www.svgrepo.com, Generator: SVG Repo Mixer Tools -->

<svg
   xmlns:dc="http://purl.org/dc/elements/1.1/"
   xmlns:cc="http://creativecommons.org/ns#"
   xmlns:rdf="http://www.w3.org/1999/02/22-rdf-syntax-ns#"
   xmlns:svg="http://www.w3.org/2000/svg"
   xmlns="http://www.w3.org/2000/svg"
   xmlns:sodipodi="http://sodipodi.sourceforge.net/DTD/sodipodi-0.dtd"
   xmlns:inkscape="http://www.inkscape.org/namespaces/inkscape"
   width="50"
   height="50"
   viewBox="0 0 1.5 1.5"
   version="1.1"
   id="svg6"
   sodipodi:docname="crayon.svg"
   style="fill:none"
   inkscape:version="0.92.5 (2060ec1f9f, 2020-04-08)">
  <metadata
     id="metadata12">
    <rdf:RDF>
      <cc:Work
         rdf:about="">
        <dc:format>image/svg+xml</dc:format>
        <dc:type
           rdf:resource="http://purl.org/dc/dcmitype/StillImage" />
        <dc:title />
      </cc:Work>
    </rdf:RDF>
  </metadata>
  <defs
     id="defs10" />
  <sodipodi:namedview
     pagecolor="#ffffff"
     bordercolor="#666666"
     borderopacity="1"
     objecttolerance="10"
     gridtolerance="10"
     guidetolerance="10"
     inkscape:pageopacity="0"
     inkscape:pageshadow="2"
     inkscape:window-width="1638"
     inkscape:window-height="1001"
     id="namedview8"
     showgrid="false"
     fit-margin-top="0"
     fit-margin-left="0"
     fit-margin-right="0"
     fit-margin-bottom="0"
     inkscape:zoom="6.675088"
     inkscape:cx="-14.432819"
     inkscape:cy="18.4969"
     inkscape:window-x="42"
     inkscape:window-y="25"
     inkscape:window-maximized="1"
     inkscape:current-layer="svg6" />
  <path
     d="M 1.3362023,0.63262762 0.92195096,1.1336415 c -0.016726,0.02023 -0.0390667,0.035054 -0.0642057,0.042613 l -0.19099838,0.057387 0.0204838,-0.1983816 c 0.00269,-0.026103 0.0130604,-0.050833 0.029786,-0.071062 L 1.1312737,0.46318164 m 0.2049286,0.16944598 0.084722,-0.10246556 c 0.023394,-0.028295 0.019423,-0.0701985 -0.00887,-0.0935938 L 1.3095886,0.35184547 c -0.028294,-0.0233959 -0.070198,-0.0194241 -0.093593,0.008871 L 1.1312728,0.46318169 M 1.3362023,0.63262762 1.1312737,0.46318164"
     id="path2"
     inkscape:connector-curvature="0"
     style="stroke:#000000;stroke-width:0.07989;stroke-linecap:round;stroke-linejoin:round;stroke-miterlimit:4;stroke-dasharray:none" />
  <path
     style="fill:none;stroke:#000000;stroke-width:0.087;stroke-linecap:square;stroke-linejoin:miter;stroke-miterlimit:4;stroke-dasharray:none;stroke-opacity:1"
     d="m 0.0730943,0.315935 c 1.0169491,0 0.9851694,0 0.9851694,0"
     id="path812"
     inkscape:connector-curvature="0" />
  <path
     style="fill:none;stroke:#000000;stroke-width:0.087;stroke-linecap:square;stroke-linejoin:miter;stroke-miterlimit:4;stroke-dasharray:none;stroke-opacity:1"
     d="m 0.0730943,0.60195195 c 0.82670239,0 0.80086799,0 0.80086799,0"
     id="path812-3"
     inkscape:connector-curvature="0" />
  <path
     style="fill:none;stroke:#000000;stroke-width:0.087;stroke-linecap:square;stroke-linejoin:miter;stroke-miterlimit:4;stroke-dasharray:none;stroke-opacity:1"
     d="m 0.0730943,0.91974855 c 0.57085343,0 0.55301424,0 0.55301424,0"
     id="path812-6"
     inkscape:connector-curvature="0" />
  <path
     style="fill:none;stroke:#000000;stroke-width:0.087;stroke-linecap:square;stroke-linejoin:miter;stroke-miterlimit:4;stroke-dasharray:none;stroke-opacity:1"
     d="m 0.0730943,1.2184774 c 0.46471776,0 0.4501953,0 0.4501953,0"
     id="path812-7"
     inkscape:connector-curvature="0" />
</svg>
