<?xml version="1.0" encoding="UTF-8" standalone="no"?>
<svg
   xmlns:dc="http://purl.org/dc/elements/1.1/"
   xmlns:cc="http://creativecommons.org/ns#"
   xmlns:rdf="http://www.w3.org/1999/02/22-rdf-syntax-ns#"
   xmlns:svg="http://www.w3.org/2000/svg"
   xmlns="http://www.w3.org/2000/svg"
   xmlns:sodipodi="http://sodipodi.sourceforge.net/DTD/sodipodi-0.dtd"
   xmlns:inkscape="http://www.inkscape.org/namespaces/inkscape"
   width="65.491524"
   height="67.118645"
   viewBox="0 0 65.491524 67.118645"
   version="1.1"
   id="svg4"
   sodipodi:docname="favicon.svg"
   inkscape:version="0.92.5 (2060ec1f9f, 2020-04-08)">
  <metadata
     id="metadata10">
    <rdf:RDF>
      <cc:Work
         rdf:about="">
        <dc:format>image/svg+xml</dc:format>
        <dc:type
           rdf:resource="http://purl.org/dc/dcmitype/StillImage" />
        <dc:title></dc:title>
      </cc:Work>
    </rdf:RDF>
  </metadata>
  <defs
     id="defs8" />
  <sodipodi:namedview
     pagecolor="#ffffff"
     bordercolor="#666666"
     borderopacity="1"
     objecttolerance="10"
     gridtolerance="10"
     guidetolerance="10"
     inkscape:pageopacity="0"
     inkscape:pageshadow="2"
     inkscape:window-width="1398"
     inkscape:window-height="851"
     id="namedview6"
     showgrid="false"
     inkscape:zoom="3.4766083"
     inkscape:cx="-0.75502182"
     inkscape:cy="28.591039"
     inkscape:window-x="42"
     inkscape:window-y="25"
     inkscape:window-maximized="1"
     inkscape:current-layer="svg4"
     fit-margin-top="0"
     fit-margin-left="0"
     fit-margin-right="0"
     fit-margin-bottom="0" />
  <ellipse
     style="opacity:1;vector-effect:none;fill:#28caca;fill-opacity:1;stroke:none;stroke-width:3.77952766;stroke-linecap:round;stroke-linejoin:miter;stroke-miterlimit:1.39999998;stroke-dasharray:22.67716599, 22.67716598999999889;stroke-dashoffset:6.04724455;stroke-opacity:1"
     id="path19"
     cx="32.745762"
     cy="33.559322"
     rx="32.745762"
     ry="33.559322" />
  <g
     id="g834"
     transform="translate(7.7288137,12.302091)">
    <rect
       y="13.898306"
       x="3.6101665"
       height="9.7796459"
       width="42.610172"
       id="rect826"
       style="opacity:1;vector-effect:none;fill:#ffffff;fill-opacity:1;stroke:none;stroke-width:3.89818978;stroke-linecap:round;stroke-linejoin:miter;stroke-miterlimit:1.39999998;stroke-dasharray:23.38913923, 23.38913923;stroke-dashoffset:6.04724455;stroke-opacity:1" />
    <rect
       y="22.847456"
       x="3.4576273"
       height="12.81356"
       width="42.610172"
       id="rect29"
       style="opacity:0.81000001;vector-effect:none;fill:#b3b3b3;fill-opacity:1;stroke:none;stroke-width:25.70180893;stroke-linecap:round;stroke-linejoin:round;stroke-miterlimit:4;stroke-dasharray:none;stroke-dashoffset:0;stroke-opacity:0.98952876" />
    <rect
       y="2.8135591"
       x="3.6101665"
       height="11.084746"
       width="42.610172"
       id="rect29-6"
       style="opacity:0.81000001;vector-effect:none;fill:#b3b3b3;fill-opacity:1;stroke:none;stroke-width:23.9051609;stroke-linecap:round;stroke-linejoin:round;stroke-miterlimit:4;stroke-dasharray:none;stroke-dashoffset:0;stroke-opacity:0.98952876" />
    <path
       sodipodi:nodetypes="cccccccccccccccccccccccccccccccccccccccc"
       style="stroke-width:2"
       inkscape:connector-curvature="0"
       id="path2"
       d="M 36.847457,12.983051 H 12.677966 v 2 h 24.169491 z m 0,-4.0000002 H 12.677966 v 2.0000002 h 24.169491 z m 0,8.0000002 H 12.677966 v 2 h 24.169491 z m 0,4 H 12.677966 v 2 h 24.169491 z m -9.830508,4 H 12.677966 v 2 H 27.016949 Z M 1.0169492,0.98305085 V 38.983051 H 49.016949 V 0.98305085 Z M 45.016949,32.983051 H 5.0169492 V 4.9830508 H 45.016949 Z m -13.198,10 5.198,6 h -24 l 5.198,-6 z" />
    <path
       inkscape:transform-center-x="-1.0745134"
       d="m 11.925173,17.916946 -6.4470808,3.722224 0,-7.444447 z"
       inkscape:randomized="0"
       inkscape:rounded="0"
       inkscape:flatsided="true"
       sodipodi:arg2="1.0471976"
       sodipodi:arg1="0"
       sodipodi:r2="2.1490266"
       sodipodi:r1="4.2980537"
       sodipodi:cy="17.916946"
       sodipodi:cx="7.6271191"
       sodipodi:sides="3"
       id="path12"
       style="opacity:0.81000001;vector-effect:none;fill:#000000;fill-opacity:1;stroke:none;stroke-width:12.08613586;stroke-linecap:round;stroke-linejoin:round;stroke-miterlimit:4;stroke-dasharray:none;stroke-dashoffset:0;stroke-opacity:0.98952876"
       sodipodi:type="star" />
    <path
       transform="scale(-1,1)"
       inkscape:transform-center-x="1.0745134"
       d="m -37.75951,17.966103 -6.447081,3.722223 v -7.444447 z"
       inkscape:randomized="0"
       inkscape:rounded="0"
       inkscape:flatsided="true"
       sodipodi:arg2="1.0471976"
       sodipodi:arg1="0"
       sodipodi:r2="2.1490266"
       sodipodi:r1="4.2980537"
       sodipodi:cy="17.966103"
       sodipodi:cx="-42.057564"
       sodipodi:sides="3"
       id="path12-3"
       style="opacity:0.81000001;vector-effect:none;fill:#000000;fill-opacity:1;stroke:none;stroke-width:12.08613586;stroke-linecap:round;stroke-linejoin:round;stroke-miterlimit:4;stroke-dasharray:none;stroke-dashoffset:0;stroke-opacity:0.98952876"
       sodipodi:type="star" />
  </g>
</svg>
