<?xml version="1.0" encoding="iso-8859-1"?>
<!-- Uploaded to: SVG Repo, www.svgrepo.com, Generator: SVG Repo Mixer Tools -->
<svg fill="#000000" height="800px" width="800px" version="1.1" id="Layer_1" xmlns="http://www.w3.org/2000/svg" xmlns:xlink="http://www.w3.org/1999/xlink" 
	 viewBox="0 0 511.53 511.53" xml:space="preserve">
<g>
	<g>
		<path d="M402.859,309.994c-3.627-7.231-11.008-11.797-19.094-11.797h-64v-85.333h64c8.085,0,15.467-4.565,19.093-11.797
			c3.584-7.232,2.816-15.872-2.027-22.336l-128-170.667c-8.043-10.752-26.091-10.752-34.133,0l-128,170.667
			c-4.843,6.464-5.611,15.104-2.027,22.336c3.627,7.232,11.008,11.797,19.093,11.797h64v85.333h-64
			c-8.085,0-15.467,4.565-19.093,11.797c-3.584,7.232-2.816,15.872,2.027,22.336l128,170.667c4.032,5.376,10.368,8.533,17.067,8.533
			c6.699,0,13.035-3.157,17.067-8.533l128-170.667C405.675,325.866,406.443,317.226,402.859,309.994z"/>
	</g>
</g>
</svg>